{
	"info": {
		"_postman_id": "a842c635-4cd4-49f4-a66b-4bfab5117779",
		"name": "NEWMAN",
		"schema": "https://schema.getpostman.com/json/collection/v2.1.0/collection.json"
	},
	"item": [
		{
			"name": "APIM-PartyInteractionsManagement - getPartyInteraction",
			"event": [
				{
					"listen": "prerequest",
					"script": {
						"exec": [
							""
						],
						"type": "text/javascript"
					}
				},
				{
					"listen": "test",
					"script": {
						"exec": [
							""
						],
						"type": "text/javascript"
					}
				}
			],
			"request": {
				"method": "POST",
				"header": [
					{
						"key": "Content-Type",
						"value": "application/json",
						"type": "text"
					},
					{
						"key": "Authorization",
						"value": "Bearer {{token}}",
						"type": "text"
					},
					{
						"key": "applicationCode",
						"value": "ATG",
						"type": "text"
					},
					{
						"key": "countryCode",
						"value": "CHL",
						"type": "text"
					},
					{
						"key": "consumerId",
						"value": "0232AASS001097202002201038060620200220103806060000",
						"type": "text"
					},
					{
						"key": "requestTimestamp",
						"value": "2020-09-29T12:34:00.544-03:00",
						"type": "text"
					}
				],
				"body": {
					"mode": "raw",
					"raw": "{\r\n    \"PartyInteraction\": {\r\n        \"type\": \"Orden\",\r\n        \"area\": \"\",\r\n        \"subArea\": \"\",\r\n        \"individual\": {\r\n            \"individualIdentification\": {\r\n                \"number\": \"24768763-7\",\r\n                \"type\": \"RUT\"\r\n            }\r\n        }\r\n    }\r\n}",
					"options": {
						"raw": {
							"language": "json"
						}
					}
				},
				"url": {
					"raw": "https://{{host}}/tmf-api/partyInteractionsManagement/v1/partyInteraction/search",
					"protocol": "https",
					"host": [
						"{{host}}"
					],
					"path": [
						"tmf-api",
						"partyInteractionsManagement",
						"v1",
						"partyInteraction",
						"search"
					]
				}
			},
			"response": [
				{
					"name": "APIM-PartyInteractionsManagement - getPartyInteraction - OK DEV",
					"originalRequest": {
						"method": "POST",
						"header": [
							{
								"key": "Content-Type",
								"value": "application/json",
								"type": "text"
							},
							{
								"key": "Authorization",
								"value": "Bearer {{token}}",
								"type": "text"
							},
							{
								"key": "applicationCode",
								"value": "ATG",
								"type": "text"
							},
							{
								"key": "countryCode",
								"value": "CHL",
								"type": "text"
							},
							{
								"key": "consumerId",
								"value": "0232AASS001097202002201038060620200220103806060000",
								"type": "text"
							},
							{
								"key": "requestTimestamp",
								"value": "2020-09-29T12:34:00.544-03:00",
								"type": "text"
							}
						],
						"body": {
							"mode": "raw",
							"raw": "{\r\n    \"PartyInteraction\": {\r\n        \"type\": \"Orden\",\r\n        \"area\": \"\",\r\n        \"subArea\": \"\",\r\n        \"individual\": {\r\n            \"individualIdentification\": {\r\n                \"number\": \"24768763-7\",\r\n                \"type\": \"RUT\"\r\n            }\r\n        }\r\n    }\r\n}",
							"options": {
								"raw": {
									"language": "json"
								}
							}
						},
						"url": {
							"raw": "https://{{host}}/tmf-api/partyInteractionsManagement/v1/partyInteraction/search",
							"protocol": "https",
							"host": [
								"{{host}}"
							],
							"path": [
								"tmf-api",
								"partyInteractionsManagement",
								"v1",
								"partyInteraction",
								"search"
							]
						}
					},
					"status": "OK",
					"code": 200,
					"_postman_previewlanguage": "json",
					"header": [
						{
							"key": "Server",
							"value": "Apache-Coyote/1.1"
						},
						{
							"key": "Connection",
							"value": "close"
						},
						{
							"key": "Content-Type",
							"value": "application/json;charset=UTF-8"
						},
						{
							"key": "Transfer-Encoding",
							"value": "chunked"
						},
						{
							"key": "Date",
							"value": "Mon, 18 Jan 2021 14:57:00 GMT"
						}
					],
					"cookie": [],
					"body": "{\n    \"result\": {\n        \"transactionId\": \"0000017174a24992-25a46b2\",\n        \"consumerId\": \"0232AASS001097202002201038060620200220103806060000\",\n        \"code\": \"200\",\n        \"description\": \"OK\",\n        \"descriptionDetail\": \"Procesamiento concluído exitosamente\",\n        \"responseTimestamp\": \"2021-01-18T10:56:59.398\"\n    },\n    \"ServiceRequest\": {\n        \"itemServiceRequest\": [\n            {\n                \"area\": \"Cambio\",\n                \"severity\": \"4 - Baja\",\n                \"owner\": \"CRMPOST94\",\n                \"reason\": \"Barring Allowing\",\n                \"serialNumber\": \"56910014491\",\n                \"dueDate\": \"01/06/2021 12:28:17\",\n                \"msisdnSn\": \"56910014491\",\n                \"externalID\": \"687830552\",\n                \"type\": \"Orden\",\n                \"stateReason\": \"Barring Allowing\",\n                \"priority\": \"3 - Media\",\n                \"compoundProductNumber\": \"56910014491\",\n                \"url\": \"uws/#/customer/1-1AVZSLE/prepare-quote/prePaidNewService/687830552/\",\n                \"number\": \"1-4077597280\",\n                \"subState\": \"Resuelto\",\n                \"createdDate\": \"01/04/2021 12:28:17\",\n                \"partyInteractionId\": \"1-1VFP274\",\n                \"assetNumber\": \"1-2835136450\",\n                \"serviceRequestDetail\": [\n                    {\n                        \"detailType\": \"FREEUNITSSERVICENOC\",\n                        \"DetailOrder\": [\n                            {\n                                \"detailDescription\": \"1873 Conectado SIMple 7990 N\",\n                                \"actionDetail\": \"PO_POS_OO_1873_CONECT_SIMPLE_N\"\n                            },\n                            {\n                                \"detailDescription\": \"BSCS_BRSCRFS\",\n                                \"actionDetail\": \"BSCS_BRSCRFS\"\n                            },\n                            {\n                                \"detailDescription\": \"Unidades Libres Datos Mensual Limitado\",\n                                \"actionDetail\": \"CFSS_DATA_FU\"\n                            },\n                            {\n                                \"detailDescription\": \"BSCS_RFPP009\",\n                                \"actionDetail\": \"BSCS_RFPP009\"\n                            },\n                            {\n                                \"detailDescription\": \"Unidades Libres Datos Mensual Limitado\",\n                                \"actionDetail\": \"csOffer_26400\"\n                            },\n                            {\n                                \"detailDescription\": \"CFSS_RECURRING_MONEY_FU\",\n                                \"actionDetail\": \"CFSS_RECURRING_MONEY_FU\"\n                            },\n                            {\n                                \"detailDescription\": \"csOffer_21400\",\n                                \"actionDetail\": \"csOffer_21400\"\n                            },\n                            {\n                                \"detailDescription\": \"BSCS_RFPP007\",\n                                \"actionDetail\": \"BSCS_RFPP007\"\n                            },\n                            {\n                                \"detailDescription\": \"Servicio SMS\",\n                                \"actionDetail\": \"CFSS_SMS_FU\"\n                            },\n                            {\n                                \"detailDescription\": \"Servicio SMS\",\n                                \"actionDetail\": \"csOffer_25400\"\n                            },\n                            {\n                                \"detailDescription\": \"BSCS_RFPP008\",\n                                \"actionDetail\": \"BSCS_RFPP008\"\n                            },\n                            {\n                                \"detailDescription\": \"Servicio RRSS Unlimited\",\n                                \"actionDetail\": \"CFSS_SOCIAL_UNL_FU\"\n                            },\n                            {\n                                \"detailDescription\": \"Servicio RRSS Unlimited\",\n                                \"actionDetail\": \"csOffer_26451\"\n                            },\n                            {\n                                \"detailDescription\": \"BSCS_RFPP006\",\n                                \"actionDetail\": \"BSCS_RFPP006\"\n                            },\n                            {\n                                \"detailDescription\": \"SUSIND\",\n                                \"actionDetail\": \"SUSIND\"\n                            },\n                            {\n                                \"detailDescription\": \"RECPERLEN\",\n                                \"actionDetail\": \"RECPERLEN\"\n                            },\n                            {\n                                \"detailDescription\": \"ZEROAMTREC\",\n                                \"actionDetail\": \"ZEROAMTREC\"\n                            },\n                            {\n                                \"detailDescription\": \"CW_DISABLEPUBLISH\",\n                                \"actionDetail\": \"CW_DISABLEPUBLISH\"\n                            },\n                            {\n                                \"detailDescription\": \"DedicatedAccountSelectionRule\",\n                                \"actionDetail\": \"DedicatedAccountSelectionRule\"\n                            },\n                            {\n                                \"detailDescription\": \"OfferValidThroughoutInterrogatio\",\n                                \"actionDetail\": \"OfferValidThroughoutInterrogatio\"\n                            },\n                            {\n                                \"detailDescription\": \"pamServiceId\",\n                                \"actionDetail\": \"pamServiceId\"\n                            },\n                            {\n                                \"detailDescription\": \"Facebook\",\n                                \"actionDetail\": \"Facebook\"\n                            },\n                            {\n                                \"detailDescription\": \"FacebookMessenger\",\n                                \"actionDetail\": \"FacebookMessenger\"\n                            },\n                            {\n                                \"detailDescription\": \"Twitter\",\n                                \"actionDetail\": \"Twitter\"\n                            },\n                            {\n                                \"detailDescription\": \"WhatsApp\",\n                                \"actionDetail\": \"WhatsApp\"\n                            },\n                            {\n                                \"detailDescription\": \"1873 Conectado SIMple 7990 N\",\n                                \"actionDetail\": \"PO_POS_OO_1873_CONECT_SIMPLE_N\"\n                            },\n                            {\n                                \"detailDescription\": \"BSCS_BRSCRFS\",\n                                \"actionDetail\": \"BSCS_BRSCRFS\"\n                            },\n                            {\n                                \"detailDescription\": \"Unidades Libres Datos Mensual Limitado\",\n                                \"actionDetail\": \"CFSS_DATA_FU\"\n                            },\n                            {\n                                \"detailDescription\": \"BSCS_RFPP009\",\n                                \"actionDetail\": \"BSCS_RFPP009\"\n                            },\n                            {\n                                \"detailDescription\": \"Unidades Libres Datos Mensual Limitado\",\n                                \"actionDetail\": \"csOffer_26400\"\n                            },\n                            {\n                                \"detailDescription\": \"CFSS_RECURRING_MONEY_FU\",\n                                \"actionDetail\": \"CFSS_RECURRING_MONEY_FU\"\n                            },\n                            {\n                                \"detailDescription\": \"csOffer_21400\",\n                                \"actionDetail\": \"csOffer_21400\"\n                            },\n                            {\n                                \"detailDescription\": \"BSCS_RFPP007\",\n                                \"actionDetail\": \"BSCS_RFPP007\"\n                            },\n                            {\n                                \"detailDescription\": \"Servicio SMS\",\n                                \"actionDetail\": \"CFSS_SMS_FU\"\n                            },\n                            {\n                                \"detailDescription\": \"Servicio SMS\",\n                                \"actionDetail\": \"csOffer_25400\"\n                            },\n                            {\n                                \"detailDescription\": \"BSCS_RFPP008\",\n                                \"actionDetail\": \"BSCS_RFPP008\"\n                            },\n                            {\n                                \"detailDescription\": \"Servicio RRSS Unlimited\",\n                                \"actionDetail\": \"CFSS_SOCIAL_UNL_FU\"\n                            },\n                            {\n                                \"detailDescription\": \"Servicio RRSS Unlimited\",\n                                \"actionDetail\": \"csOffer_26451\"\n                            },\n                            {\n                                \"detailDescription\": \"BSCS_RFPP006\",\n                                \"actionDetail\": \"BSCS_RFPP006\"\n                            },\n                            {\n                                \"detailDescription\": \"SUSIND\",\n                                \"actionDetail\": \"SUSIND\"\n                            },\n                            {\n                                \"detailDescription\": \"RECPERLEN\",\n                                \"actionDetail\": \"RECPERLEN\"\n                            },\n                            {\n                                \"detailDescription\": \"ZEROAMTREC\",\n                                \"actionDetail\": \"ZEROAMTREC\"\n                            },\n                            {\n                                \"detailDescription\": \"CW_DISABLEPUBLISH\",\n                                \"actionDetail\": \"CW_DISABLEPUBLISH\"\n                            },\n                            {\n                                \"detailDescription\": \"DedicatedAccountSelectionRule\",\n                                \"actionDetail\": \"DedicatedAccountSelectionRule\"\n                            },\n                            {\n                                \"detailDescription\": \"OfferValidThroughoutInterrogatio\",\n                                \"actionDetail\": \"OfferValidThroughoutInterrogatio\"\n                            },\n                            {\n                                \"detailDescription\": \"pamServiceId\",\n                                \"actionDetail\": \"pamServiceId\"\n                            },\n                            {\n                                \"detailDescription\": \"Facebook\",\n                                \"actionDetail\": \"Facebook\"\n                            },\n                            {\n                                \"detailDescription\": \"FacebookMessenger\",\n                                \"actionDetail\": \"FacebookMessenger\"\n                            },\n                            {\n                                \"detailDescription\": \"Twitter\",\n                                \"actionDetail\": \"Twitter\"\n                            },\n                            {\n                                \"detailDescription\": \"WhatsApp\",\n                                \"actionDetail\": \"WhatsApp\"\n                            }\n                        ]\n                    },\n                    {\n                        \"detailType\": \"BASICCONTRACTUPD\",\n                        \"DetailOrder\": [\n                            {\n                                \"detailDescription\": \"PO Básico Postpaid Movil\",\n                                \"actionDetail\": \"PO_BSC_MOVILES_POSTPAID\"\n                            },\n                            {\n                                \"detailDescription\": \"CFSS_BARRING_POSTPAID\",\n                                \"actionDetail\": \"CFSS_BARRING_POSTPAID\"\n                            },\n                            {\n                                \"detailDescription\": \"BSCS_RFPP011\",\n                                \"actionDetail\": \"BSCS_RFPP011\"\n                            },\n                            {\n                                \"detailDescription\": \"csOffer_28000\",\n                                \"actionDetail\": \"csOffer_28000\"\n                            },\n                            {\n                                \"detailDescription\": \"CFSS_BASIC_POSTPAID\",\n                                \"actionDetail\": \"CFSS_BASIC_POSTPAID\"\n                            },\n                            {\n                                \"detailDescription\": \"BSCS_CPBPORFS\",\n                                \"actionDetail\": \"BSCS_CPBPORFS\"\n                            },\n                            {\n                                \"detailDescription\": \"CS_SC_2000\",\n                                \"actionDetail\": \"CS_SC_2000\"\n                            },\n                            {\n                                \"detailDescription\": \"CFSS_BASIC_SERVICE_POSTPAID\",\n                                \"actionDetail\": \"CFSS_BASIC_SERVICE_POSTPAID\"\n                            },\n                            {\n                                \"detailDescription\": \"BSCS_RFPP012\",\n                                \"actionDetail\": \"BSCS_RFPP012\"\n                            },\n                            {\n                                \"detailDescription\": \"csOffer_28001\",\n                                \"actionDetail\": \"csOffer_28001\"\n                            },\n                            {\n                                \"detailDescription\": \"CFSS_VAS_POSTPAID\",\n                                \"actionDetail\": \"CFSS_VAS_POSTPAID\"\n                            },\n                            {\n                                \"detailDescription\": \"BSCS_RFPP003\",\n                                \"actionDetail\": \"BSCS_RFPP003\"\n                            },\n                            {\n                                \"detailDescription\": \"csOffer_24100\",\n                                \"actionDetail\": \"csOffer_24100\"\n                            },\n                            {\n                                \"detailDescription\": \"BAR_NUMBERS_606_609\",\n                                \"actionDetail\": \"BAR_NUMBERS_606_609\"\n                            },\n                            {\n                                \"detailDescription\": \"BAR_NUMBER_300\",\n                                \"actionDetail\": \"BAR_NUMBER_300\"\n                            },\n                            {\n                                \"detailDescription\": \"BAR_NUMBER_700\",\n                                \"actionDetail\": \"BAR_NUMBER_700\"\n                            },\n                            {\n                                \"detailDescription\": \"BAR_ROAM_VOICE_IN\",\n                                \"actionDetail\": \"BAR_ROAM_VOICE_IN\"\n                            },\n                            {\n                                \"detailDescription\": \"BAR_ROAM_VOZ_SMS\",\n                                \"actionDetail\": \"BAR_ROAM_VOZ_SMS\"\n                            },\n                            {\n                                \"detailDescription\": \"BAR_ALL_IN_OUT\",\n                                \"actionDetail\": \"BAR_ALL_IN_OUT\"\n                            },\n                            {\n                                \"detailDescription\": \"BAR_DATA_IN_OUT\",\n                                \"actionDetail\": \"BAR_DATA_IN_OUT\"\n                            },\n                            {\n                                \"detailDescription\": \"BAR_SMS_IN\",\n                                \"actionDetail\": \"BAR_SMS_IN\"\n                            },\n                            {\n                                \"detailDescription\": \"BAR_SMS_OUT\",\n                                \"actionDetail\": \"BAR_SMS_OUT\"\n                            },\n                            {\n                                \"detailDescription\": \"BAR_VOICE_IN\",\n                                \"actionDetail\": \"BAR_VOICE_IN\"\n                            },\n                            {\n                                \"detailDescription\": \"BAR_VOICE_OUT\",\n                                \"actionDetail\": \"BAR_VOICE_OUT\"\n                            },\n                            {\n                                \"detailDescription\": \"CW_DISABLEPUBLISH\",\n                                \"actionDetail\": \"CW_DISABLEPUBLISH\"\n                            },\n                            {\n                                \"detailDescription\": \"BreakChargingIntervalsOnDa\",\n                                \"actionDetail\": \"BreakChargingIntervalsOnDa\"\n                            },\n                            {\n                                \"detailDescription\": \"reratingCapability\",\n                                \"actionDetail\": \"reratingCapability\"\n                            },\n                            {\n                                \"detailDescription\": \"MSISDN_MANDATORY\",\n                                \"actionDetail\": \"MSISDN_MANDATORY\"\n                            },\n                            {\n                                \"detailDescription\": \"Converged\",\n                                \"actionDetail\": \"Converged\"\n                            },\n                            {\n                                \"detailDescription\": \"Language\",\n                                \"actionDetail\": \"Language\"\n                            },\n                            {\n                                \"detailDescription\": \"DedicatedAccountSelectionRule\",\n                                \"actionDetail\": \"DedicatedAccountSelectionRule\"\n                            },\n                            {\n                                \"detailDescription\": \"OfferValidThroughoutInterrogatio\",\n                                \"actionDetail\": \"OfferValidThroughoutInterrogatio\"\n                            },\n                            {\n                                \"detailDescription\": \"PO Básico Postpaid Movil\",\n                                \"actionDetail\": \"PO_BSC_MOVILES_POSTPAID\"\n                            },\n                            {\n                                \"detailDescription\": \"CFSS_BARRING_POSTPAID\",\n                                \"actionDetail\": \"CFSS_BARRING_POSTPAID\"\n                            },\n                            {\n                                \"detailDescription\": \"BSCS_RFPP011\",\n                                \"actionDetail\": \"BSCS_RFPP011\"\n                            },\n                            {\n                                \"detailDescription\": \"csOffer_28000\",\n                                \"actionDetail\": \"csOffer_28000\"\n                            },\n                            {\n                                \"detailDescription\": \"CFSS_BASIC_POSTPAID\",\n                                \"actionDetail\": \"CFSS_BASIC_POSTPAID\"\n                            },\n                            {\n                                \"detailDescription\": \"BSCS_CPBPORFS\",\n                                \"actionDetail\": \"BSCS_CPBPORFS\"\n                            },\n                            {\n                                \"detailDescription\": \"CS_SC_2000\",\n                                \"actionDetail\": \"CS_SC_2000\"\n                            },\n                            {\n                                \"detailDescription\": \"CFSS_BASIC_SERVICE_POSTPAID\",\n                                \"actionDetail\": \"CFSS_BASIC_SERVICE_POSTPAID\"\n                            },\n                            {\n                                \"detailDescription\": \"BSCS_RFPP012\",\n                                \"actionDetail\": \"BSCS_RFPP012\"\n                            },\n                            {\n                                \"detailDescription\": \"csOffer_28001\",\n                                \"actionDetail\": \"csOffer_28001\"\n                            },\n                            {\n                                \"detailDescription\": \"CFSS_VAS_POSTPAID\",\n                                \"actionDetail\": \"CFSS_VAS_POSTPAID\"\n                            },\n                            {\n                                \"detailDescription\": \"BSCS_RFPP003\",\n                                \"actionDetail\": \"BSCS_RFPP003\"\n                            },\n                            {\n                                \"detailDescription\": \"csOffer_24100\",\n                                \"actionDetail\": \"csOffer_24100\"\n                            },\n                            {\n                                \"detailDescription\": \"BAR_NUMBERS_606_609\",\n                                \"actionDetail\": \"BAR_NUMBERS_606_609\"\n                            },\n                            {\n                                \"detailDescription\": \"BAR_NUMBER_300\",\n                                \"actionDetail\": \"BAR_NUMBER_300\"\n                            },\n                            {\n                                \"detailDescription\": \"BAR_NUMBER_700\",\n                                \"actionDetail\": \"BAR_NUMBER_700\"\n                            },\n                            {\n                                \"detailDescription\": \"BAR_ROAM_VOICE_IN\",\n                                \"actionDetail\": \"BAR_ROAM_VOICE_IN\"\n                            },\n                            {\n                                \"detailDescription\": \"BAR_ROAM_VOZ_SMS\",\n                                \"actionDetail\": \"BAR_ROAM_VOZ_SMS\"\n                            },\n                            {\n                                \"detailDescription\": \"BAR_ALL_IN_OUT\",\n                                \"actionDetail\": \"BAR_ALL_IN_OUT\"\n                            },\n                            {\n                                \"detailDescription\": \"BAR_DATA_IN_OUT\",\n                                \"actionDetail\": \"BAR_DATA_IN_OUT\"\n                            },\n                            {\n                                \"detailDescription\": \"BAR_SMS_IN\",\n                                \"actionDetail\": \"BAR_SMS_IN\"\n                            },\n                            {\n                                \"detailDescription\": \"BAR_SMS_OUT\",\n                                \"actionDetail\": \"BAR_SMS_OUT\"\n                            },\n                            {\n                                \"detailDescription\": \"BAR_VOICE_IN\",\n                                \"actionDetail\": \"BAR_VOICE_IN\"\n                            },\n                            {\n                                \"detailDescription\": \"BAR_VOICE_OUT\",\n                                \"actionDetail\": \"BAR_VOICE_OUT\"\n                            },\n                            {\n                                \"detailDescription\": \"CW_DISABLEPUBLISH\",\n                                \"actionDetail\": \"CW_DISABLEPUBLISH\"\n                            },\n                            {\n                                \"detailDescription\": \"BreakChargingIntervalsOnDa\",\n                                \"actionDetail\": \"BreakChargingIntervalsOnDa\"\n                            },\n                            {\n                                \"detailDescription\": \"reratingCapability\",\n                                \"actionDetail\": \"reratingCapability\"\n                            },\n                            {\n                                \"detailDescription\": \"MSISDN_MANDATORY\",\n                                \"actionDetail\": \"MSISDN_MANDATORY\"\n                            },\n                            {\n                                \"detailDescription\": \"Converged\",\n                                \"actionDetail\": \"Converged\"\n                            },\n                            {\n                                \"detailDescription\": \"Language\",\n                                \"actionDetail\": \"Language\"\n                            },\n                            {\n                                \"detailDescription\": \"DedicatedAccountSelectionRule\",\n                                \"actionDetail\": \"DedicatedAccountSelectionRule\"\n                            },\n                            {\n                                \"detailDescription\": \"OfferValidThroughoutInterrogatio\",\n                                \"actionDetail\": \"OfferValidThroughoutInterrogatio\"\n                            }\n                        ]\n                    }\n                ],\n                \"closedDate\": \"01/04/2021 12:31:24\",\n                \"subArea\": \"Móvil - Postpago\",\n                \"state\": \"Cerrado\",\n                \"openDate\": \"01/04/2021 12:28:17\",\n                \"chanelIn\": \"Call Center\"\n            },\n            {\n                \"area\": \"Venta\",\n                \"severity\": \"4 - Baja\",\n                \"owner\": \"CRMPOST92\",\n                \"dueDate\": \"12/24/2020 10:28:46\",\n                \"externalID\": \"687827113\",\n                \"type\": \"Orden\",\n                \"priority\": \"3 - Media\",\n                \"url\": \"uws/#/customer/1-1AVZSLE/prepare-quote/prePaidNewService/687827113/\",\n                \"shippingStatus\": \"Delivery\",\n                \"number\": \"1-4067061814\",\n                \"subState\": \"En Progreso\",\n                \"createdDate\": \"12/17/2020 10:28:46\",\n                \"partyInteractionId\": \"1-1V9F8ZA\",\n                \"subArea\": \"Móvil - Prepago\",\n                \"state\": \"En Progreso\",\n                \"openDate\": \"12/17/2020 10:28:46\",\n                \"chanelIn\": \"Ventas Remotas\"\n            }\n        ]\n    }\n}"
				},
				{
					"name": "APIM-PartyInteractionsManagement - getPartyInteraction - OK 422 PROD CHL",
					"originalRequest": {
						"method": "POST",
						"header": [
							{
								"key": "Content-Type",
								"value": "application/json",
								"type": "text"
							},
							{
								"key": "Authorization",
								"value": "Bearer {{token}}",
								"type": "text"
							},
							{
								"key": "applicationCode",
								"value": "ATG",
								"type": "text"
							},
							{
								"key": "countryCode",
								"value": "CHL",
								"type": "text"
							},
							{
								"key": "consumerId",
								"value": "0232AASS001097202002201038060620200220103806060000",
								"type": "text"
							},
							{
								"key": "requestTimestamp",
								"value": "2020-09-29T12:34:00.544-03:00",
								"type": "text"
							}
						],
						"body": {
							"mode": "raw",
							"raw": "{\r\n    \"PartyInteraction\": {\r\n        \"type\": \"Orden\",\r\n        \"area\": \"\",\r\n        \"subArea\": \"\",\r\n        \"individual\": {\r\n            \"individualIdentification\": {\r\n                \"number\": \"24768763-7\",\r\n                \"type\": \"RUT\"\r\n            }\r\n        }\r\n    }\r\n}",
							"options": {
								"raw": {
									"language": "json"
								}
							}
						},
						"url": {
							"raw": "https://{{host}}/tmf-api/partyInteractionsManagement/v1/partyInteraction/search",
							"protocol": "https",
							"host": [
								"{{host}}"
							],
							"path": [
								"tmf-api",
								"partyInteractionsManagement",
								"v1",
								"partyInteraction",
								"search"
							]
						}
					},
					"status": "Unprocessable Entity",
					"code": 422,
					"_postman_previewlanguage": "json",
					"header": [
						{
							"key": "X-Frame-Options",
							"value": "DENY"
						},
						{
							"key": "X-XSS-Protection",
							"value": "1; mode=block"
						},
						{
							"key": "X-Content-Type-Options",
							"value": "nosniff"
						},
						{
							"key": "Content-Security-Policy",
							"value": "default-src 'self' apiinternal.entel.cl"
						},
						{
							"key": "Access-Control-Allow-Origin",
							"value": "apiinternal.entel.cl"
						},
						{
							"key": "Content-Encoding",
							"value": "gzip"
						},
						{
							"key": "Content-Type",
							"value": "application/json;charset=UTF-8"
						},
						{
							"key": "Content-Length",
							"value": "207"
						},
						{
							"key": "Date",
							"value": "Sun, 17 Jan 2021 04:51:20 GMT"
						},
						{
							"key": "Server",
							"value": ""
						}
					],
					"cookie": [],
					"body": "{\n    \"result\": {\n        \"transactionId\": \"00000175c4d62615-cab694f\",\n        \"consumerId\": \"0232AASS001097202002201038060620200220103806060000\",\n        \"code\": \"02\",\n        \"description\": \"Entidad no procesada\",\n        \"descriptionDetail\": \"Datos no encontrados.\",\n        \"responseTimestamp\": \"2021-01-17T01:51:21.114\"\n    }\n}"
				},
				{
					"name": "APIM-PartyInteractionsManagement - getPartyInteraction - OK",
					"originalRequest": {
						"method": "POST",
						"header": [
							{
								"key": "Content-Type",
								"value": "application/json",
								"type": "text"
							},
							{
								"key": "Authorization",
								"value": "Bearer {{token}}",
								"type": "text"
							},
							{
								"key": "applicationCode",
								"value": "ATG",
								"type": "text"
							},
							{
								"key": "countryCode",
								"value": "CHL",
								"type": "text"
							},
							{
								"key": "consumerId",
								"value": "0232AASS001097202002201038060620200220103806060000",
								"type": "text"
							},
							{
								"key": "requestTimestamp",
								"value": "2020-09-29T12:34:00.544-03:00",
								"type": "text"
							}
						],
						"body": {
							"mode": "raw",
							"raw": "{\r\n    \"PartyInteraction\": {\r\n        \"type\": \"Orden\",\r\n        \"area\": \"\",\r\n        \"subArea\": \"\",\r\n        \"individual\": {\r\n            \"individualIdentification\": {\r\n                \"number\": \"24768763-7\",\r\n                \"type\": \"RUT\"\r\n            }\r\n        }\r\n    }\r\n}",
							"options": {
								"raw": {
									"language": "json"
								}
							}
						},
						"url": {
							"raw": "https://{{host}}/tmf-api/partyInteractionsManagement/v1/partyInteraction/search",
							"protocol": "https",
							"host": [
								"{{host}}"
							],
							"path": [
								"tmf-api",
								"partyInteractionsManagement",
								"v1",
								"partyInteraction",
								"search"
							]
						}
					},
					"status": "OK",
					"code": 200,
					"_postman_previewlanguage": "json",
					"header": [
						{
							"key": "Server",
							"value": "Apache-Coyote/1.1"
						},
						{
							"key": "Connection",
							"value": "close"
						},
						{
							"key": "Content-Type",
							"value": "application/json;charset=UTF-8"
						},
						{
							"key": "Transfer-Encoding",
							"value": "chunked"
						},
						{
							"key": "Date",
							"value": "Mon, 18 Jan 2021 14:58:04 GMT"
						}
					],
					"cookie": [],
					"body": "{\n    \"result\": {\n        \"transactionId\": \"0000017174a24992-25a47fa\",\n        \"consumerId\": \"0232AASS001097202002201038060620200220103806060000\",\n        \"code\": \"200\",\n        \"description\": \"OK\",\n        \"descriptionDetail\": \"Procesamiento concluído exitosamente\",\n        \"responseTimestamp\": \"2021-01-18T10:58:05.102\"\n    },\n    \"ServiceRequest\": {\n        \"itemServiceRequest\": [\n            {\n                \"area\": \"Cambio\",\n                \"severity\": \"4 - Baja\",\n                \"owner\": \"CRMPOST94\",\n                \"reason\": \"Barring Allowing\",\n                \"serialNumber\": \"56910014491\",\n                \"dueDate\": \"01/06/2021 12:28:17\",\n                \"msisdnSn\": \"56910014491\",\n                \"externalID\": \"687830552\",\n                \"type\": \"Orden\",\n                \"stateReason\": \"Barring Allowing\",\n                \"priority\": \"3 - Media\",\n                \"compoundProductNumber\": \"56910014491\",\n                \"url\": \"uws/#/customer/1-1AVZSLE/prepare-quote/prePaidNewService/687830552/\",\n                \"number\": \"1-4077597280\",\n                \"subState\": \"Resuelto\",\n                \"createdDate\": \"01/04/2021 12:28:17\",\n                \"partyInteractionId\": \"1-1VFP274\",\n                \"assetNumber\": \"1-2835136450\",\n                \"serviceRequestDetail\": [\n                    {\n                        \"detailType\": \"FREEUNITSSERVICENOC\",\n                        \"DetailOrder\": [\n                            {\n                                \"detailDescription\": \"1873 Conectado SIMple 7990 N\",\n                                \"actionDetail\": \"PO_POS_OO_1873_CONECT_SIMPLE_N\"\n                            },\n                            {\n                                \"detailDescription\": \"BSCS_BRSCRFS\",\n                                \"actionDetail\": \"BSCS_BRSCRFS\"\n                            },\n                            {\n                                \"detailDescription\": \"Unidades Libres Datos Mensual Limitado\",\n                                \"actionDetail\": \"CFSS_DATA_FU\"\n                            },\n                            {\n                                \"detailDescription\": \"BSCS_RFPP009\",\n                                \"actionDetail\": \"BSCS_RFPP009\"\n                            },\n                            {\n                                \"detailDescription\": \"Unidades Libres Datos Mensual Limitado\",\n                                \"actionDetail\": \"csOffer_26400\"\n                            },\n                            {\n                                \"detailDescription\": \"CFSS_RECURRING_MONEY_FU\",\n                                \"actionDetail\": \"CFSS_RECURRING_MONEY_FU\"\n                            },\n                            {\n                                \"detailDescription\": \"csOffer_21400\",\n                                \"actionDetail\": \"csOffer_21400\"\n                            },\n                            {\n                                \"detailDescription\": \"BSCS_RFPP007\",\n                                \"actionDetail\": \"BSCS_RFPP007\"\n                            },\n                            {\n                                \"detailDescription\": \"Servicio SMS\",\n                                \"actionDetail\": \"CFSS_SMS_FU\"\n                            },\n                            {\n                                \"detailDescription\": \"Servicio SMS\",\n                                \"actionDetail\": \"csOffer_25400\"\n                            },\n                            {\n                                \"detailDescription\": \"BSCS_RFPP008\",\n                                \"actionDetail\": \"BSCS_RFPP008\"\n                            },\n                            {\n                                \"detailDescription\": \"Servicio RRSS Unlimited\",\n                                \"actionDetail\": \"CFSS_SOCIAL_UNL_FU\"\n                            },\n                            {\n                                \"detailDescription\": \"Servicio RRSS Unlimited\",\n                                \"actionDetail\": \"csOffer_26451\"\n                            },\n                            {\n                                \"detailDescription\": \"BSCS_RFPP006\",\n                                \"actionDetail\": \"BSCS_RFPP006\"\n                            },\n                            {\n                                \"detailDescription\": \"SUSIND\",\n                                \"actionDetail\": \"SUSIND\"\n                            },\n                            {\n                                \"detailDescription\": \"RECPERLEN\",\n                                \"actionDetail\": \"RECPERLEN\"\n                            },\n                            {\n                                \"detailDescription\": \"ZEROAMTREC\",\n                                \"actionDetail\": \"ZEROAMTREC\"\n                            },\n                            {\n                                \"detailDescription\": \"CW_DISABLEPUBLISH\",\n                                \"actionDetail\": \"CW_DISABLEPUBLISH\"\n                            },\n                            {\n                                \"detailDescription\": \"DedicatedAccountSelectionRule\",\n                                \"actionDetail\": \"DedicatedAccountSelectionRule\"\n                            },\n                            {\n                                \"detailDescription\": \"OfferValidThroughoutInterrogatio\",\n                                \"actionDetail\": \"OfferValidThroughoutInterrogatio\"\n                            },\n                            {\n                                \"detailDescription\": \"pamServiceId\",\n                                \"actionDetail\": \"pamServiceId\"\n                            },\n                            {\n                                \"detailDescription\": \"Facebook\",\n                                \"actionDetail\": \"Facebook\"\n                            },\n                            {\n                                \"detailDescription\": \"FacebookMessenger\",\n                                \"actionDetail\": \"FacebookMessenger\"\n                            },\n                            {\n                                \"detailDescription\": \"Twitter\",\n                                \"actionDetail\": \"Twitter\"\n                            },\n                            {\n                                \"detailDescription\": \"WhatsApp\",\n                                \"actionDetail\": \"WhatsApp\"\n                            },\n                            {\n                                \"detailDescription\": \"1873 Conectado SIMple 7990 N\",\n                                \"actionDetail\": \"PO_POS_OO_1873_CONECT_SIMPLE_N\"\n                            },\n                            {\n                                \"detailDescription\": \"BSCS_BRSCRFS\",\n                                \"actionDetail\": \"BSCS_BRSCRFS\"\n                            },\n                            {\n                                \"detailDescription\": \"Unidades Libres Datos Mensual Limitado\",\n                                \"actionDetail\": \"CFSS_DATA_FU\"\n                            },\n                            {\n                                \"detailDescription\": \"BSCS_RFPP009\",\n                                \"actionDetail\": \"BSCS_RFPP009\"\n                            },\n                            {\n                                \"detailDescription\": \"Unidades Libres Datos Mensual Limitado\",\n                                \"actionDetail\": \"csOffer_26400\"\n                            },\n                            {\n                                \"detailDescription\": \"CFSS_RECURRING_MONEY_FU\",\n                                \"actionDetail\": \"CFSS_RECURRING_MONEY_FU\"\n                            },\n                            {\n                                \"detailDescription\": \"csOffer_21400\",\n                                \"actionDetail\": \"csOffer_21400\"\n                            },\n                            {\n                                \"detailDescription\": \"BSCS_RFPP007\",\n                                \"actionDetail\": \"BSCS_RFPP007\"\n                            },\n                            {\n                                \"detailDescription\": \"Servicio SMS\",\n                                \"actionDetail\": \"CFSS_SMS_FU\"\n                            },\n                            {\n                                \"detailDescription\": \"Servicio SMS\",\n                                \"actionDetail\": \"csOffer_25400\"\n                            },\n                            {\n                                \"detailDescription\": \"BSCS_RFPP008\",\n                                \"actionDetail\": \"BSCS_RFPP008\"\n                            },\n                            {\n                                \"detailDescription\": \"Servicio RRSS Unlimited\",\n                                \"actionDetail\": \"CFSS_SOCIAL_UNL_FU\"\n                            },\n                            {\n                                \"detailDescription\": \"Servicio RRSS Unlimited\",\n                                \"actionDetail\": \"csOffer_26451\"\n                            },\n                            {\n                                \"detailDescription\": \"BSCS_RFPP006\",\n                                \"actionDetail\": \"BSCS_RFPP006\"\n                            },\n                            {\n                                \"detailDescription\": \"SUSIND\",\n                                \"actionDetail\": \"SUSIND\"\n                            },\n                            {\n                                \"detailDescription\": \"RECPERLEN\",\n                                \"actionDetail\": \"RECPERLEN\"\n                            },\n                            {\n                                \"detailDescription\": \"ZEROAMTREC\",\n                                \"actionDetail\": \"ZEROAMTREC\"\n                            },\n                            {\n                                \"detailDescription\": \"CW_DISABLEPUBLISH\",\n                                \"actionDetail\": \"CW_DISABLEPUBLISH\"\n                            },\n                            {\n                                \"detailDescription\": \"DedicatedAccountSelectionRule\",\n                                \"actionDetail\": \"DedicatedAccountSelectionRule\"\n                            },\n                            {\n                                \"detailDescription\": \"OfferValidThroughoutInterrogatio\",\n                                \"actionDetail\": \"OfferValidThroughoutInterrogatio\"\n                            },\n                            {\n                                \"detailDescription\": \"pamServiceId\",\n                                \"actionDetail\": \"pamServiceId\"\n                            },\n                            {\n                                \"detailDescription\": \"Facebook\",\n                                \"actionDetail\": \"Facebook\"\n                            },\n                            {\n                                \"detailDescription\": \"FacebookMessenger\",\n                                \"actionDetail\": \"FacebookMessenger\"\n                            },\n                            {\n                                \"detailDescription\": \"Twitter\",\n                                \"actionDetail\": \"Twitter\"\n                            },\n                            {\n                                \"detailDescription\": \"WhatsApp\",\n                                \"actionDetail\": \"WhatsApp\"\n                            }\n                        ]\n                    },\n                    {\n                        \"detailType\": \"BASICCONTRACTUPD\",\n                        \"DetailOrder\": [\n                            {\n                                \"detailDescription\": \"PO Básico Postpaid Movil\",\n                                \"actionDetail\": \"PO_BSC_MOVILES_POSTPAID\"\n                            },\n                            {\n                                \"detailDescription\": \"CFSS_BARRING_POSTPAID\",\n                                \"actionDetail\": \"CFSS_BARRING_POSTPAID\"\n                            },\n                            {\n                                \"detailDescription\": \"BSCS_RFPP011\",\n                                \"actionDetail\": \"BSCS_RFPP011\"\n                            },\n                            {\n                                \"detailDescription\": \"csOffer_28000\",\n                                \"actionDetail\": \"csOffer_28000\"\n                            },\n                            {\n                                \"detailDescription\": \"CFSS_BASIC_POSTPAID\",\n                                \"actionDetail\": \"CFSS_BASIC_POSTPAID\"\n                            },\n                            {\n                                \"detailDescription\": \"BSCS_CPBPORFS\",\n                                \"actionDetail\": \"BSCS_CPBPORFS\"\n                            },\n                            {\n                                \"detailDescription\": \"CS_SC_2000\",\n                                \"actionDetail\": \"CS_SC_2000\"\n                            },\n                            {\n                                \"detailDescription\": \"CFSS_BASIC_SERVICE_POSTPAID\",\n                                \"actionDetail\": \"CFSS_BASIC_SERVICE_POSTPAID\"\n                            },\n                            {\n                                \"detailDescription\": \"BSCS_RFPP012\",\n                                \"actionDetail\": \"BSCS_RFPP012\"\n                            },\n                            {\n                                \"detailDescription\": \"csOffer_28001\",\n                                \"actionDetail\": \"csOffer_28001\"\n                            },\n                            {\n                                \"detailDescription\": \"CFSS_VAS_POSTPAID\",\n                                \"actionDetail\": \"CFSS_VAS_POSTPAID\"\n                            },\n                            {\n                                \"detailDescription\": \"BSCS_RFPP003\",\n                                \"actionDetail\": \"BSCS_RFPP003\"\n                            },\n                            {\n                                \"detailDescription\": \"csOffer_24100\",\n                                \"actionDetail\": \"csOffer_24100\"\n                            },\n                            {\n                                \"detailDescription\": \"BAR_NUMBERS_606_609\",\n                                \"actionDetail\": \"BAR_NUMBERS_606_609\"\n                            },\n                            {\n                                \"detailDescription\": \"BAR_NUMBER_300\",\n                                \"actionDetail\": \"BAR_NUMBER_300\"\n                            },\n                            {\n                                \"detailDescription\": \"BAR_NUMBER_700\",\n                                \"actionDetail\": \"BAR_NUMBER_700\"\n                            },\n                            {\n                                \"detailDescription\": \"BAR_ROAM_VOICE_IN\",\n                                \"actionDetail\": \"BAR_ROAM_VOICE_IN\"\n                            },\n                            {\n                                \"detailDescription\": \"BAR_ROAM_VOZ_SMS\",\n                                \"actionDetail\": \"BAR_ROAM_VOZ_SMS\"\n                            },\n                            {\n                                \"detailDescription\": \"BAR_ALL_IN_OUT\",\n                                \"actionDetail\": \"BAR_ALL_IN_OUT\"\n                            },\n                            {\n                                \"detailDescription\": \"BAR_DATA_IN_OUT\",\n                                \"actionDetail\": \"BAR_DATA_IN_OUT\"\n                            },\n                            {\n                                \"detailDescription\": \"BAR_SMS_IN\",\n                                \"actionDetail\": \"BAR_SMS_IN\"\n                            },\n                            {\n                                \"detailDescription\": \"BAR_SMS_OUT\",\n                                \"actionDetail\": \"BAR_SMS_OUT\"\n                            },\n                            {\n                                \"detailDescription\": \"BAR_VOICE_IN\",\n                                \"actionDetail\": \"BAR_VOICE_IN\"\n                            },\n                            {\n                                \"detailDescription\": \"BAR_VOICE_OUT\",\n                                \"actionDetail\": \"BAR_VOICE_OUT\"\n                            },\n                            {\n                                \"detailDescription\": \"CW_DISABLEPUBLISH\",\n                                \"actionDetail\": \"CW_DISABLEPUBLISH\"\n                            },\n                            {\n                                \"detailDescription\": \"BreakChargingIntervalsOnDa\",\n                                \"actionDetail\": \"BreakChargingIntervalsOnDa\"\n                            },\n                            {\n                                \"detailDescription\": \"reratingCapability\",\n                                \"actionDetail\": \"reratingCapability\"\n                            },\n                            {\n                                \"detailDescription\": \"MSISDN_MANDATORY\",\n                                \"actionDetail\": \"MSISDN_MANDATORY\"\n                            },\n                            {\n                                \"detailDescription\": \"Converged\",\n                                \"actionDetail\": \"Converged\"\n                            },\n                            {\n                                \"detailDescription\": \"Language\",\n                                \"actionDetail\": \"Language\"\n                            },\n                            {\n                                \"detailDescription\": \"DedicatedAccountSelectionRule\",\n                                \"actionDetail\": \"DedicatedAccountSelectionRule\"\n                            },\n                            {\n                                \"detailDescription\": \"OfferValidThroughoutInterrogatio\",\n                                \"actionDetail\": \"OfferValidThroughoutInterrogatio\"\n                            },\n                            {\n                                \"detailDescription\": \"PO Básico Postpaid Movil\",\n                                \"actionDetail\": \"PO_BSC_MOVILES_POSTPAID\"\n                            },\n                            {\n                                \"detailDescription\": \"CFSS_BARRING_POSTPAID\",\n                                \"actionDetail\": \"CFSS_BARRING_POSTPAID\"\n                            },\n                            {\n                                \"detailDescription\": \"BSCS_RFPP011\",\n                                \"actionDetail\": \"BSCS_RFPP011\"\n                            },\n                            {\n                                \"detailDescription\": \"csOffer_28000\",\n                                \"actionDetail\": \"csOffer_28000\"\n                            },\n                            {\n                                \"detailDescription\": \"CFSS_BASIC_POSTPAID\",\n                                \"actionDetail\": \"CFSS_BASIC_POSTPAID\"\n                            },\n                            {\n                                \"detailDescription\": \"BSCS_CPBPORFS\",\n                                \"actionDetail\": \"BSCS_CPBPORFS\"\n                            },\n                            {\n                                \"detailDescription\": \"CS_SC_2000\",\n                                \"actionDetail\": \"CS_SC_2000\"\n                            },\n                            {\n                                \"detailDescription\": \"CFSS_BASIC_SERVICE_POSTPAID\",\n                                \"actionDetail\": \"CFSS_BASIC_SERVICE_POSTPAID\"\n                            },\n                            {\n                                \"detailDescription\": \"BSCS_RFPP012\",\n                                \"actionDetail\": \"BSCS_RFPP012\"\n                            },\n                            {\n                                \"detailDescription\": \"csOffer_28001\",\n                                \"actionDetail\": \"csOffer_28001\"\n                            },\n                            {\n                                \"detailDescription\": \"CFSS_VAS_POSTPAID\",\n                                \"actionDetail\": \"CFSS_VAS_POSTPAID\"\n                            },\n                            {\n                                \"detailDescription\": \"BSCS_RFPP003\",\n                                \"actionDetail\": \"BSCS_RFPP003\"\n                            },\n                            {\n                                \"detailDescription\": \"csOffer_24100\",\n                                \"actionDetail\": \"csOffer_24100\"\n                            },\n                            {\n                                \"detailDescription\": \"BAR_NUMBERS_606_609\",\n                                \"actionDetail\": \"BAR_NUMBERS_606_609\"\n                            },\n                            {\n                                \"detailDescription\": \"BAR_NUMBER_300\",\n                                \"actionDetail\": \"BAR_NUMBER_300\"\n                            },\n                            {\n                                \"detailDescription\": \"BAR_NUMBER_700\",\n                                \"actionDetail\": \"BAR_NUMBER_700\"\n                            },\n                            {\n                                \"detailDescription\": \"BAR_ROAM_VOICE_IN\",\n                                \"actionDetail\": \"BAR_ROAM_VOICE_IN\"\n                            },\n                            {\n                                \"detailDescription\": \"BAR_ROAM_VOZ_SMS\",\n                                \"actionDetail\": \"BAR_ROAM_VOZ_SMS\"\n                            },\n                            {\n                                \"detailDescription\": \"BAR_ALL_IN_OUT\",\n                                \"actionDetail\": \"BAR_ALL_IN_OUT\"\n                            },\n                            {\n                                \"detailDescription\": \"BAR_DATA_IN_OUT\",\n                                \"actionDetail\": \"BAR_DATA_IN_OUT\"\n                            },\n                            {\n                                \"detailDescription\": \"BAR_SMS_IN\",\n                                \"actionDetail\": \"BAR_SMS_IN\"\n                            },\n                            {\n                                \"detailDescription\": \"BAR_SMS_OUT\",\n                                \"actionDetail\": \"BAR_SMS_OUT\"\n                            },\n                            {\n                                \"detailDescription\": \"BAR_VOICE_IN\",\n                                \"actionDetail\": \"BAR_VOICE_IN\"\n                            },\n                            {\n                                \"detailDescription\": \"BAR_VOICE_OUT\",\n                                \"actionDetail\": \"BAR_VOICE_OUT\"\n                            },\n                            {\n                                \"detailDescription\": \"CW_DISABLEPUBLISH\",\n                                \"actionDetail\": \"CW_DISABLEPUBLISH\"\n                            },\n                            {\n                                \"detailDescription\": \"BreakChargingIntervalsOnDa\",\n                                \"actionDetail\": \"BreakChargingIntervalsOnDa\"\n                            },\n                            {\n                                \"detailDescription\": \"reratingCapability\",\n                                \"actionDetail\": \"reratingCapability\"\n                            },\n                            {\n                                \"detailDescription\": \"MSISDN_MANDATORY\",\n                                \"actionDetail\": \"MSISDN_MANDATORY\"\n                            },\n                            {\n                                \"detailDescription\": \"Converged\",\n                                \"actionDetail\": \"Converged\"\n                            },\n                            {\n                                \"detailDescription\": \"Language\",\n                                \"actionDetail\": \"Language\"\n                            },\n                            {\n                                \"detailDescription\": \"DedicatedAccountSelectionRule\",\n                                \"actionDetail\": \"DedicatedAccountSelectionRule\"\n                            },\n                            {\n                                \"detailDescription\": \"OfferValidThroughoutInterrogatio\",\n                                \"actionDetail\": \"OfferValidThroughoutInterrogatio\"\n                            }\n                        ]\n                    }\n                ],\n                \"closedDate\": \"01/04/2021 12:31:24\",\n                \"subArea\": \"Móvil - Postpago\",\n                \"state\": \"Cerrado\",\n                \"openDate\": \"01/04/2021 12:28:17\",\n                \"chanelIn\": \"Call Center\"\n            },\n            {\n                \"area\": \"Venta\",\n                \"severity\": \"4 - Baja\",\n                \"owner\": \"CRMPOST92\",\n                \"dueDate\": \"12/24/2020 10:28:46\",\n                \"externalID\": \"687827113\",\n                \"type\": \"Orden\",\n                \"priority\": \"3 - Media\",\n                \"url\": \"uws/#/customer/1-1AVZSLE/prepare-quote/prePaidNewService/687827113/\",\n                \"shippingStatus\": \"Delivery\",\n                \"number\": \"1-4067061814\",\n                \"subState\": \"En Progreso\",\n                \"createdDate\": \"12/17/2020 10:28:46\",\n                \"partyInteractionId\": \"1-1V9F8ZA\",\n                \"subArea\": \"Móvil - Prepago\",\n                \"state\": \"En Progreso\",\n                \"openDate\": \"12/17/2020 10:28:46\",\n                \"chanelIn\": \"Ventas Remotas\"\n            }\n        ]\n    }\n}"
				}
			]
		},
		{
			"name": "APIM-GeographicAddressManagement - getAddressResource",
			"event": [
				{
					"listen": "test",
					"script": {
						"exec": [
							""
						],
						"type": "text/javascript"
					}
				}
			],
			"request": {
				"method": "GET",
				"header": [
					{
						"key": "Content-Type",
						"value": "application/json",
						"type": "text"
					},
					{
						"key": "Authorization",
						"value": "Bearer {{token}}",
						"type": "text"
					},
					{
						"key": "applicationCode",
						"value": "ATG",
						"type": "text"
					},
					{
						"key": "countryCode",
						"value": "CHL",
						"type": "text"
					},
					{
						"key": "consumerId",
						"value": "0232AASS100911202002201038060620200220103806060000",
						"type": "text"
					},
					{
						"key": "requestTimestamp",
						"value": "2018-04-09T12:34:00.544-03:00",
						"type": "text"
					}
				],
				"url": {
					"raw": "https://{{host}}/geographicAddressManagement/v1/geographicAddress/location?latitude=-33.49394591&longitude=-70.77686717&country=CHILE",
					"protocol": "https",
					"host": [
						"{{host}}"
					],
					"path": [
						"geographicAddressManagement",
						"v1",
						"geographicAddress",
						"location"
					],
					"query": [
						{
							"key": "latitude",
							"value": "-33.49394591"
						},
						{
							"key": "longitude",
							"value": "-70.77686717"
						},
						{
							"key": "country",
							"value": "CHILE"
						}
					]
				}
			},
			"response": [
				{
					"name": "APIM-GeographicAddressManagement - getAddressResource - OK",
					"originalRequest": {
						"method": "GET",
						"header": [
							{
								"key": "Content-Type",
								"value": "application/json",
								"type": "text"
							},
							{
								"key": "Authorization",
								"value": "Bearer {{token}}",
								"type": "text"
							},
							{
								"key": "applicationCode",
								"value": "ATG",
								"type": "text"
							},
							{
								"key": "countryCode",
								"value": "CHL",
								"type": "text"
							},
							{
								"key": "consumerId",
								"value": "0232AASS100911202002201038060620200220103806060000",
								"type": "text"
							},
							{
								"key": "requestTimestamp",
								"value": "2018-04-09T12:34:00.544-03:00",
								"type": "text"
							}
						],
						"url": {
							"raw": "https://{{host}}/geographicAddressManagement/v1/geographicAddress/location?latitude=-33.49394591&longitude=-70.77686717&country=CHILE",
							"protocol": "https",
							"host": [
								"{{host}}"
							],
							"path": [
								"geographicAddressManagement",
								"v1",
								"geographicAddress",
								"location"
							],
							"query": [
								{
									"key": "latitude",
									"value": "-33.49394591"
								},
								{
									"key": "longitude",
									"value": "-70.77686717"
								},
								{
									"key": "country",
									"value": "CHILE"
								}
							]
						}
					},
					"status": "OK",
					"code": 200,
					"_postman_previewlanguage": "json",
					"header": [
						{
							"key": "Server",
							"value": "Apache-Coyote/1.1"
						},
						{
							"key": "X-Frame-Options",
							"value": "DENY"
						},
						{
							"key": "X-XSS-Protection",
							"value": "1; mode=block"
						},
						{
							"key": "X-Content-Type-Options",
							"value": "nosniff"
						},
						{
							"key": "Content-Security-Policy",
							"value": "default-src 'self' apiinternaluat2.entel.cl"
						},
						{
							"key": "Access-Control-Allow-Origin",
							"value": "apiinternaluat2.entel.cl"
						},
						{
							"key": "Content-Encoding",
							"value": "gzip"
						},
						{
							"key": "Content-Type",
							"value": "application/json;charset=utf-8"
						},
						{
							"key": "Content-Length",
							"value": "474"
						},
						{
							"key": "Date",
							"value": "Tue, 12 Jan 2021 19:48:06 GMT"
						}
					],
					"cookie": [],
					"body": "{\n    \"result\": {\n        \"transactionId\": \"0000016fc5390c63-3ff1b38\",\n        \"consumerId\": \"0232AASS100911202002201038060620200220103806060000\",\n        \"code\": \"0\",\n        \"description\": \"OK\",\n        \"descriptionDetail\": \"_Consulta Exitosa\",\n        \"responseTimestamp\": \"2021-01-12T16:48:05.969\"\n    },\n    \"geographicAddress\": [\n        {\n            \"stateOrProvinceId\": \"49\",\n            \"streetType\": \"CALLE\",\n            \"geographicLocation\": {\n                \"geometry\": {\n                    \"x\": \"334925.9029\",\n                    \"y\": \"6292482.1209\"\n                }\n            },\n            \"communeName\": \"MAIPU\",\n            \"streetNr\": \"90\",\n            \"regionName\": \"LA LIBERTAD\",\n            \"postcode\": \"9301250\",\n            \"totalFloors\": \"9301250\",\n            \"streetNrSuffix\": \"\",\n            \"stateOrProvinceName\": \"SANTIAGO\",\n            \"buildingTypeId\": \"1\",\n            \"regionId\": \"13\",\n            \"totalDepartamens\": \"0\",\n            \"streetNrLastSuffix\": \"\",\n            \"streetTypeId\": \"3\",\n            \"id\": \"3742800\",\n            \"communeId\": \"327\",\n            \"streetId\": \"101314\",\n            \"buildingType\": \"CASA\"\n        },\n        {\n            \"stateOrProvinceId\": \"49\",\n            \"streetType\": \"CALLE\",\n            \"geographicLocation\": {\n                \"geometry\": {\n                    \"x\": \"334925.9029\",\n                    \"y\": \"6292482.1209\"\n                }\n            },\n            \"communeName\": \"MAIPU\",\n            \"streetNr\": \"90\",\n            \"regionName\": \"METROPOLITANA DE SANTIAGO\",\n            \"postcode\": \"9301250\",\n            \"totalFloors\": \"9301250\",\n            \"streetNrSuffix\": \"\",\n            \"stateOrProvinceName\": \"SANTIAGO\",\n            \"buildingTypeId\": \"1\",\n            \"regionId\": \"13\",\n            \"totalDepartamens\": \"0\",\n            \"streetNrLastSuffix\": \"\",\n            \"streetTypeId\": \"3\",\n            \"id\": \"3742800\",\n            \"communeId\": \"327\",\n            \"streetId\": \"101314\",\n            \"buildingType\": \"CASA\"\n        }\n    ]\n}"
				},
				{
					"name": "APIM-GeographicAddressManagement - getAddressResource - OK PROD CHL",
					"originalRequest": {
						"method": "GET",
						"header": [
							{
								"key": "Content-Type",
								"value": "application/json",
								"type": "text"
							},
							{
								"key": "Authorization",
								"value": "Bearer {{token}}",
								"type": "text"
							},
							{
								"key": "applicationCode",
								"value": "ATG",
								"type": "text"
							},
							{
								"key": "countryCode",
								"value": "CHL",
								"type": "text"
							},
							{
								"key": "consumerId",
								"value": "0232AASS100911202002201038060620200220103806060000",
								"type": "text"
							},
							{
								"key": "requestTimestamp",
								"value": "2018-04-09T12:34:00.544-03:00",
								"type": "text"
							}
						],
						"url": {
							"raw": "https://{{host}}/geographicAddressManagement/v1/geographicAddress/location?latitude=-33.49394591&longitude=-70.77686717&country=CHILE",
							"protocol": "https",
							"host": [
								"{{host}}"
							],
							"path": [
								"geographicAddressManagement",
								"v1",
								"geographicAddress",
								"location"
							],
							"query": [
								{
									"key": "latitude",
									"value": "-33.49394591"
								},
								{
									"key": "longitude",
									"value": "-70.77686717"
								},
								{
									"key": "country",
									"value": "CHILE"
								}
							]
						}
					},
					"status": "OK",
					"code": 200,
					"_postman_previewlanguage": "json",
					"header": [
						{
							"key": "X-Frame-Options",
							"value": "DENY"
						},
						{
							"key": "X-XSS-Protection",
							"value": "1; mode=block"
						},
						{
							"key": "X-Content-Type-Options",
							"value": "nosniff"
						},
						{
							"key": "Content-Security-Policy",
							"value": "default-src 'self' apiinternal.entel.cl"
						},
						{
							"key": "Access-Control-Allow-Origin",
							"value": "apiinternal.entel.cl"
						},
						{
							"key": "Content-Encoding",
							"value": "gzip"
						},
						{
							"key": "Content-Type",
							"value": "application/json;charset=utf-8"
						},
						{
							"key": "Content-Length",
							"value": "447"
						},
						{
							"key": "Date",
							"value": "Sun, 17 Jan 2021 04:33:46 GMT"
						},
						{
							"key": "Server",
							"value": ""
						}
					],
					"cookie": [],
					"body": "{\n    \"result\": {\n        \"transactionId\": \"00000175c4d62615-cab48a9\",\n        \"consumerId\": \"0232AASS100911202002201038060620200220103806060000\",\n        \"code\": \"0\",\n        \"description\": \"OK\",\n        \"descriptionDetail\": \"_Consulta Exitosa\",\n        \"responseTimestamp\": \"2021-01-17T01:33:46.079\"\n    },\n    \"geographicAddress\": [\n        {\n            \"stateOrProvinceId\": \"49\",\n            \"streetType\": \"CALLE\",\n            \"geographicLocation\": {\n                \"geometry\": {\n                    \"x\": \"334933.112\",\n                    \"y\": \"6292539.236\"\n                }\n            },\n            \"communeName\": \"MAIPU\",\n            \"streetNr\": \"90\",\n            \"regionName\": \"METROPOLITANA DE SANTIAGO\",\n            \"postcode\": \"9301250\",\n            \"totalFloors\": \"9301250\",\n            \"streetNrSuffix\": \"\",\n            \"stateOrProvinceName\": \"SANTIAGO\",\n            \"buildingTypeId\": \"1\",\n            \"regionId\": \"13\",\n            \"totalDepartamens\": \"0\",\n            \"streetNrLastSuffix\": \"\",\n            \"streetTypeId\": \"3\",\n            \"id\": \"3742800\",\n            \"communeId\": \"327\",\n            \"streetId\": \"101314\",\n            \"buildingType\": \"CASA\"\n        }\n    ]\n}"
				}
			]
		},
		{
			"name": "APIM-troubleTicketOnline-v2-getWorkOrderDetailTroubleTicketOnline-v2",
			"event": [
				{
					"listen": "prerequest",
					"script": {
						"exec": [
							""
						],
						"type": "text/javascript"
					}
				}
			],
			"protocolProfileBehavior": {
				"disableBodyPruning": true
			},
			"request": {
				"method": "GET",
				"header": [
					{
						"key": "Content-Type",
						"type": "text",
						"value": "application/json"
					},
					{
						"key": "Authorization",
						"type": "text",
						"value": "Bearer {{token}}"
					},
					{
						"key": "applicationCode",
						"type": "text",
						"value": "ATG"
					},
					{
						"key": "countryCode",
						"type": "text",
						"value": "CHL"
					},
					{
						"key": "consumerId",
						"type": "text",
						"value": "0232AASS100911202002201038060620200220103806060000"
					},
					{
						"key": "requestTimestamp",
						"type": "text",
						"value": "2018-04-09T12:34:00.544-03:00"
					}
				],
				"body": {
					"mode": "raw",
					"raw": "",
					"options": {
						"raw": {
							"language": "json"
						}
					}
				},
				"url": {
					"raw": "https://{{host}}/common/v2/troubleTicketOnline/workOrder/detail?WorkOrderID=WO0000000019206",
					"protocol": "https",
					"host": [
						"{{host}}"
					],
					"path": [
						"common",
						"v2",
						"troubleTicketOnline",
						"workOrder",
						"detail"
					],
					"query": [
						{
							"key": "WorkOrderID",
							"value": "WO0000000019206"
						},
						{
							"key": "queryType",
							"value": null,
							"disabled": true
						}
					]
				}
			},
			"response": [
				{
					"name": "APIM-troubleTicketOnline-v2-getWorkOrderDetailTroubleTicketOnline-v2 - OK - UAT2",
					"originalRequest": {
						"method": "GET",
						"header": [
							{
								"key": "Content-Type",
								"type": "text",
								"value": "application/json"
							},
							{
								"key": "Authorization",
								"type": "text",
								"value": "Bearer {{token}}"
							},
							{
								"key": "applicationCode",
								"type": "text",
								"value": "ATG"
							},
							{
								"key": "countryCode",
								"type": "text",
								"value": "CHL"
							},
							{
								"key": "consumerId",
								"type": "text",
								"value": "0232AASS100911202002201038060620200220103806060000"
							},
							{
								"key": "requestTimestamp",
								"type": "text",
								"value": "2018-04-09T12:34:00.544-03:00"
							}
						],
						"body": {
							"mode": "raw",
							"raw": "",
							"options": {
								"raw": {
									"language": "json"
								}
							}
						},
						"url": {
							"raw": "https://{{host}}/common/v2/troubleTicketOnline/workOrder/detail?WorkOrderID=WO0000000019206",
							"protocol": "https",
							"host": [
								"{{host}}"
							],
							"path": [
								"common",
								"v2",
								"troubleTicketOnline",
								"workOrder",
								"detail"
							],
							"query": [
								{
									"key": "WorkOrderID",
									"value": "WO0000000019206"
								},
								{
									"key": "queryType",
									"value": null,
									"disabled": true
								}
							]
						}
					},
					"status": "OK",
					"code": 200,
					"_postman_previewlanguage": "json",
					"header": [
						{
							"key": "Server",
							"value": "Apache-Coyote/1.1"
						},
						{
							"key": "X-Frame-Options",
							"value": "DENY"
						},
						{
							"key": "X-XSS-Protection",
							"value": "1; mode=block"
						},
						{
							"key": "X-Content-Type-Options",
							"value": "nosniff"
						},
						{
							"key": "Content-Security-Policy",
							"value": "default-src 'self' apiinternaluat2.entel.cl"
						},
						{
							"key": "Access-Control-Allow-Origin",
							"value": "apiinternaluat2.entel.cl"
						},
						{
							"key": "Content-Encoding",
							"value": "gzip"
						},
						{
							"key": "Content-Type",
							"value": "application/json;charset=utf-8"
						},
						{
							"key": "Content-Length",
							"value": "291"
						},
						{
							"key": "Date",
							"value": "Mon, 16 Nov 2020 18:53:33 GMT"
						}
					],
					"cookie": [],
					"body": "{\n    \"result\": {\n        \"transactionId\": \"0000016fc5390c63-3560aba\",\n        \"consumerId\": \"0232AASS100911202002201038060620200220103806060000\",\n        \"code\": \"200\",\n        \"description\": \"OK\",\n        \"descriptionDetail\": \"Consulta ok del registro\",\n        \"responseTimestamp\": \"2020-11-16T15:53:30.282\"\n    },\n    \"TroubleTicket\": {\n        \"additionalFields\": [\n            {\n                \"field\": \"Generic_Char_03\",\n                \"value\": \"61-00020-003\"\n            }\n        ]\n    }\n}"
				},
				{
					"name": "APIM-troubleTicketOnline-v2-getWorkOrderDetailTroubleTicketOnline-v2 - OK - UAT2",
					"originalRequest": {
						"method": "GET",
						"header": [
							{
								"key": "Content-Type",
								"type": "text",
								"value": "application/json"
							},
							{
								"key": "Authorization",
								"type": "text",
								"value": "Bearer {{token}}"
							},
							{
								"key": "applicationCode",
								"type": "text",
								"value": "ATG"
							},
							{
								"key": "countryCode",
								"type": "text",
								"value": "CHL"
							},
							{
								"key": "consumerId",
								"type": "text",
								"value": "0232AASS100911202002201038060620200220103806060000"
							},
							{
								"key": "requestTimestamp",
								"type": "text",
								"value": "2018-04-09T12:34:00.544-03:00"
							}
						],
						"body": {
							"mode": "raw",
							"raw": "",
							"options": {
								"raw": {
									"language": "json"
								}
							}
						},
						"url": {
							"raw": "https://{{host}}/common/v2/troubleTicketOnline/workOrder/detail?WorkOrderID=WO0000000019206",
							"protocol": "https",
							"host": [
								"{{host}}"
							],
							"path": [
								"common",
								"v2",
								"troubleTicketOnline",
								"workOrder",
								"detail"
							],
							"query": [
								{
									"key": "WorkOrderID",
									"value": "WO0000000019206"
								},
								{
									"key": "queryType",
									"value": null,
									"disabled": true
								}
							]
						}
					},
					"status": "OK",
					"code": 200,
					"_postman_previewlanguage": "json",
					"header": [
						{
							"key": "Server",
							"value": "Apache-Coyote/1.1"
						},
						{
							"key": "X-Frame-Options",
							"value": "DENY"
						},
						{
							"key": "X-XSS-Protection",
							"value": "1; mode=block"
						},
						{
							"key": "X-Content-Type-Options",
							"value": "nosniff"
						},
						{
							"key": "Content-Security-Policy",
							"value": "default-src 'self' apiinternaluat2.entel.cl"
						},
						{
							"key": "Access-Control-Allow-Origin",
							"value": "apiinternaluat2.entel.cl"
						},
						{
							"key": "Content-Encoding",
							"value": "gzip"
						},
						{
							"key": "Content-Type",
							"value": "application/json;charset=utf-8"
						},
						{
							"key": "Content-Length",
							"value": "291"
						},
						{
							"key": "Date",
							"value": "Mon, 16 Nov 2020 18:53:33 GMT"
						}
					],
					"cookie": [],
					"body": "{\n    \"result\": {\n        \"transactionId\": \"0000016fc5390c63-3560aba\",\n        \"consumerId\": \"0232AASS100911202002201038060620200220103806060000\",\n        \"code\": \"200\",\n        \"description\": \"OK\",\n        \"descriptionDetail\": \"Consulta ok del registro\",\n        \"responseTimestamp\": \"2020-11-16T15:53:30.282\"\n    },\n    \"TroubleTicket\": {\n        \"additionalFields\": [\n            {\n                \"field\": \"Generic_Char_03\",\n                \"value\": \"61-00020-003\"\n            }\n        ]\n    }\n}"
				}
			]
		},
		{
			"name": "APIM-PartyInteractionsManagement-createUpdatePartyInteraction",
			"event": [
				{
					"listen": "prerequest",
					"script": {
						"exec": [
							""
						],
						"type": "text/javascript"
					}
				}
			],
			"request": {
				"method": "POST",
				"header": [
					{
						"key": "Content-Type",
						"value": "application/json",
						"type": "text"
					},
					{
						"key": "Authorization",
						"value": "Bearer {{token}}",
						"type": "text"
					},
					{
						"key": "applicationCode",
						"value": "ATG",
						"type": "text"
					},
					{
						"key": "countryCode",
						"value": "CHL",
						"type": "text"
					},
					{
						"key": "consumerId",
						"value": "0232AASS001097202002201038060620200220103806060000",
						"type": "text"
					},
					{
						"key": "requestTimestamp",
						"value": "2020-09-29T12:34:00.544-03:00",
						"type": "text"
					}
				],
				"body": {
					"mode": "raw",
					"raw": "{\r\n   \"PartyInteraction\": {\r\n   \t \"individual\": {\r\n          \"individualIdentification\": {\r\n         \"number\": \"14621038-4\",\r\n         \"type\": \"RUT\"\r\n        }\r\n    },\r\n\t  \"chanelIn\": \"Agente Terreno\",\r\n      \"subArea\": \"Hogar - Postpago\",\r\n      \"subState\": \"No Asignado\",\r\n      \"type\": \"Orden\",\r\n      \"area\": \"Venta Servicios\",\r\n      \"state\": \"Abierto\",\r\n      \"stateReason\": \"Abierto\"\r\n   }\r\n}",
					"options": {
						"raw": {
							"language": "json"
						}
					}
				},
				"url": {
					"raw": "https://{{host}}/tmf-api/partyInteractionsManagement/v1/partyInteraction",
					"protocol": "https",
					"host": [
						"{{host}}"
					],
					"path": [
						"tmf-api",
						"partyInteractionsManagement",
						"v1",
						"partyInteraction"
					]
				}
			},
			"response": [
				{
					"name": "APIM-PartyInteractionsManagement-createUpdatePartyInteraction - OK - UAT2",
					"originalRequest": {
						"method": "POST",
						"header": [
							{
								"key": "Content-Type",
								"value": "application/json",
								"type": "text"
							},
							{
								"key": "Authorization",
								"value": "Bearer {{token}}",
								"type": "text"
							},
							{
								"key": "applicationCode",
								"value": "ATG",
								"type": "text"
							},
							{
								"key": "countryCode",
								"value": "CHL",
								"type": "text"
							},
							{
								"key": "consumerId",
								"value": "0232AASS001097202002201038060620200220103806060000",
								"type": "text"
							},
							{
								"key": "requestTimestamp",
								"value": "2020-09-29T12:34:00.544-03:00",
								"type": "text"
							}
						],
						"body": {
							"mode": "raw",
							"raw": "{\r\n   \"PartyInteraction\": {\r\n   \t \"individual\": {\r\n          \"individualIdentification\": {\r\n         \"number\": \"14621038-4\",\r\n         \"type\": \"RUT\"\r\n        }\r\n    },\r\n\t  \"chanelIn\": \"Agente Terreno\",\r\n      \"subArea\": \"Hogar - Postpago\",\r\n      \"subState\": \"No Asignado\",\r\n      \"type\": \"Orden\",\r\n      \"area\": \"Venta Servicios\",\r\n      \"state\": \"Abierto\",\r\n      \"stateReason\": \"Abierto\"\r\n   }\r\n}",
							"options": {
								"raw": {
									"language": "json"
								}
							}
						},
						"url": {
							"raw": "https://{{host}}/tmf-api/partyInteractionsManagement/v1/partyInteraction",
							"protocol": "https",
							"host": [
								"{{host}}"
							],
							"path": [
								"tmf-api",
								"partyInteractionsManagement",
								"v1",
								"partyInteraction"
							]
						}
					},
					"status": "OK",
					"code": 200,
					"_postman_previewlanguage": "json",
					"header": [
						{
							"key": "Server",
							"value": "Apache-Coyote/1.1"
						},
						{
							"key": "X-Frame-Options",
							"value": "DENY"
						},
						{
							"key": "X-XSS-Protection",
							"value": "1; mode=block"
						},
						{
							"key": "X-Content-Type-Options",
							"value": "nosniff"
						},
						{
							"key": "Content-Security-Policy",
							"value": "default-src 'self' apiinternaluat2.entel.cl"
						},
						{
							"key": "Access-Control-Allow-Origin",
							"value": "apiinternaluat2.entel.cl"
						},
						{
							"key": "Content-Encoding",
							"value": "gzip"
						},
						{
							"key": "Content-Type",
							"value": "application/json;charset=utf-8"
						},
						{
							"key": "Content-Length",
							"value": "284"
						},
						{
							"key": "Date",
							"value": "Thu, 17 Dec 2020 15:56:41 GMT"
						}
					],
					"cookie": [],
					"body": "{\n    \"result\": {\n        \"transactionId\": \"0000016fc5390c63-3b2a2ed\",\n        \"consumerId\": \"0232AASS001097202002201038060620200220103806060000\",\n        \"code\": \"200\",\n        \"description\": \"Procesamiento concluído exitosamente\",\n        \"descriptionDetail\": \"OK\",\n        \"responseTimestamp\": \"2020-12-17T12:56:40.643\"\n    },\n    \"PartyInteraction\": {\n        \"integrationId\": \"\",\n        \"serviceRequestId\": \"1-1V9K3CJ\",\n        \"serviceRequestNumber\": \"\"\n    }\n}"
				}
			]
		},
		{
			"name": "APIM-workOrders-v2-setMessageStatus",
			"event": [
				{
					"listen": "prerequest",
					"script": {
						"exec": [
							""
						],
						"type": "text/javascript"
					}
				}
			],
			"request": {
				"method": "POST",
				"header": [
					{
						"key": "Content-Type",
						"type": "text",
						"value": "application/json"
					},
					{
						"key": "Authorization",
						"type": "text",
						"value": "Bearer {{token}}"
					},
					{
						"key": "applicationCode",
						"type": "text",
						"value": "ATG"
					},
					{
						"key": "countryCode",
						"type": "text",
						"value": "CHL"
					},
					{
						"key": "consumerId",
						"type": "text",
						"value": "0232AASS100911202002201038060620200220103806060000"
					},
					{
						"key": "requestTimestamp",
						"type": "text",
						"value": "2018-04-09T12:34:00.544-03:00"
					}
				],
				"body": {
					"mode": "raw",
					"raw": "{\r\n    \"WorkOrder\": {\r\n        \"messages\": [\r\n            {\r\n                \"id\": \"2007\",\r\n                \"status\": \"delivered\",\r\n                \"description\": \"COMPLETED\",\r\n                \"data\": \"Night time\",\r\n                \"externalId\": \"\",\r\n                \"duration\": \"14\",\r\n                \"sent\": \"2011-11-29T12:54:22+00:00\",\r\n                \"remainingAttempts\": \"\",\r\n                \"stopAttempts\": \"\",\r\n                \"deliveryTime\": \"\",\r\n                \"deliveryStatus\": \"\"\r\n            },\r\n            {\r\n                \"id\": \"2007\",\r\n                \"status\": \"delivered\",\r\n                \"description\": \"COMPLETED\",\r\n                \"data\": \"Night time\",\r\n                \"externalId\": \"\",\r\n                \"duration\": \"14\",\r\n                \"sent\": \"2011-11-29T12:54:22+00:00\",\r\n                \"remainingAttempts\": \"\",\r\n                \"stopAttempts\": \"\",\r\n                \"deliveryTime\": \"\",\r\n                \"deliveryStatus\": \"\"\r\n            }\r\n        ]\r\n    }\r\n}",
					"options": {
						"raw": {
							"language": "json"
						}
					}
				},
				"url": {
					"raw": "https://{{host}}/enterprise/workforce/resource/v2/workOrders/message",
					"protocol": "https",
					"host": [
						"{{host}}"
					],
					"path": [
						"enterprise",
						"workforce",
						"resource",
						"v2",
						"workOrders",
						"message"
					]
				}
			},
			"response": [
				{
					"name": "APIM-workOrders-v2-setMessageStatus - Ok",
					"originalRequest": {
						"method": "POST",
						"header": [
							{
								"key": "Content-Type",
								"type": "text",
								"value": "application/json"
							},
							{
								"key": "Authorization",
								"type": "text",
								"value": "Bearer {{token}}"
							},
							{
								"key": "applicationCode",
								"type": "text",
								"value": "ATG"
							},
							{
								"key": "countryCode",
								"type": "text",
								"value": "CHL"
							},
							{
								"key": "consumerId",
								"type": "text",
								"value": "0232AASS100911202002201038060620200220103806060000"
							},
							{
								"key": "requestTimestamp",
								"type": "text",
								"value": "2018-04-09T12:34:00.544-03:00"
							}
						],
						"body": {
							"mode": "raw",
							"raw": "{\r\n    \"WorkOrder\": {\r\n        \"messages\": [\r\n            {\r\n                \"id\": \"2007\",\r\n                \"status\": \"delivered\",\r\n                \"description\": \"COMPLETED\",\r\n                \"data\": \"Night time\",\r\n                \"externalId\": \"\",\r\n                \"duration\": \"14\",\r\n                \"sent\": \"2011-11-29T12:54:22+00:00\",\r\n                \"remainingAttempts\": \"\",\r\n                \"stopAttempts\": \"\",\r\n                \"deliveryTime\": \"\",\r\n                \"deliveryStatus\": \"\"\r\n            },\r\n            {\r\n                \"id\": \"2007\",\r\n                \"status\": \"delivered\",\r\n                \"description\": \"COMPLETED\",\r\n                \"data\": \"Night time\",\r\n                \"externalId\": \"\",\r\n                \"duration\": \"14\",\r\n                \"sent\": \"2011-11-29T12:54:22+00:00\",\r\n                \"remainingAttempts\": \"\",\r\n                \"stopAttempts\": \"\",\r\n                \"deliveryTime\": \"\",\r\n                \"deliveryStatus\": \"\"\r\n            }\r\n        ]\r\n    }\r\n}",
							"options": {
								"raw": {
									"language": "json"
								}
							}
						},
						"url": {
							"raw": "https://{{host}}/enterprise/workforce/resource/v2/workOrders/message",
							"protocol": "https",
							"host": [
								"{{host}}"
							],
							"path": [
								"enterprise",
								"workforce",
								"resource",
								"v2",
								"workOrders",
								"message"
							]
						}
					},
					"status": "OK",
					"code": 200,
					"_postman_previewlanguage": "json",
					"header": [
						{
							"key": "Server",
							"value": "Apache-Coyote/1.1"
						},
						{
							"key": "X-Frame-Options",
							"value": "DENY"
						},
						{
							"key": "X-XSS-Protection",
							"value": "1; mode=block"
						},
						{
							"key": "X-Content-Type-Options",
							"value": "nosniff"
						},
						{
							"key": "Content-Security-Policy",
							"value": "default-src 'self' apiinternaluat2.entel.cl"
						},
						{
							"key": "Access-Control-Allow-Origin",
							"value": "apiinternaluat2.entel.cl"
						},
						{
							"key": "Content-Encoding",
							"value": "gzip"
						},
						{
							"key": "Content-Type",
							"value": "application/json;charset=utf-8"
						},
						{
							"key": "Content-Length",
							"value": "271"
						},
						{
							"key": "Date",
							"value": "Thu, 31 Dec 2020 14:47:51 GMT"
						}
					],
					"cookie": [],
					"body": "{\n    \"result\": {\n        \"transactionId\": \"0000016fc5390c63-3db255e\",\n        \"consumerId\": \"0232AASS100911202002201038060620200220103806060000\",\n        \"code\": \"200\",\n        \"description\": \"OK\",\n        \"descriptionDetail\": \"Procesamiento concluído exitosamente\",\n        \"responseTimestamp\": \"2020-12-31T11:47:45.165\"\n    },\n    \"WorkOrder\": {\n        \"messages\": [\n            {\n                \"code\": \"NOT FOUND\",\n                \"id\": \"2007\"\n            },\n            {\n                \"code\": \"NOT FOUND\",\n                \"id\": \"2007\"\n            }\n        ]\n    }\n}"
				}
			]
		}
	],
	"event": [
		{
			"listen": "prerequest",
			"script": {
				"type": "text/javascript",
				"exec": [
					"",
					"postman.setGlobalVariable(\"utilidades\", function utilidades() {",
					"    let util = {};",
					"",
					"    util.invocaToken = function invocaToken(host, client_id, client_secret) {",
					"        pm.sendRequest({",
					"              url: 'https://'+host+'/auth/oauth/v2/token',",
					"              method: 'POST',",
					"              header: 'Content-Type:application/x-www-form-urlencoded',",
					"                body: {",
					"                    mode: 'urlencoded',",
					"                    urlencoded: [",
					"                            { key: \"grant_type\", value:  \"client_credentials\"},",
					"                            { key: \"client_id\", value: client_id },",
					"                            { key: \"client_secret\", value: client_secret }",
					"                    ]",
					"                }",
					"            }, function (err, res) {",
					"              console.log(err ? err : res.json());",
					"              pm.environment.set(\"token\", res.json().access_token);",
					"            });",
					"    }",
					"    return util;",
					"",
					"} + '; utilidades();');",
					"",
					"let util = eval(globals.utilidades);",
					"util.invocaToken(pm.environment.get(\"host\") ,pm.environment.get(\"client_id\") ,pm.environment.get(\"client_secret\") );",
					""
				]
			}
		},
		{
			"listen": "test",
			"script": {
				"type": "text/javascript",
				"exec": [
					"pm.test(\"Status code is 200\", function () {",
					"    pm.response.to.have.status(200);",
					"});"
				]
			}
		}
	]
}